<svg width="12" height="10" viewBox="0 0 12 10" fill="none" xmlns="http://www.w3.org/2000/svg">
<path id="Icon" d="M6.06942 0.11438L11.0694 4.65886L6.06942 9.20334L5.11571 8.33651L8.48761 5.2718H0V4.04592H8.48761L5.11571 0.98121L6.06942 0.11438Z" fill="white"/>
</svg>
