<svg width="12" height="9" viewBox="0 0 12 9" fill="none" xmlns="http://www.w3.org/2000/svg">
<path id="Vector 202" d="M1 4.5V4.5C2.15823 5.27215 3.17673 6.23564 4.01194 7.34926L4.5 8L5.43704 6.50074C6.74735 4.40423 8.40279 2.54443 10.3333 1V1" stroke="white" stroke-width="2" stroke-linecap="round" stroke-linejoin="round"/>
</svg>
